%YAML 1.1
%TAG !u! tag:unity3d.com,2011:
--- !u!114 &11400000
MonoBehaviour:
  m_ObjectHideFlags: 0
  m_CorrespondingSourceObject: {fileID: 0}
  m_PrefabInstance: {fileID: 0}
  m_PrefabAsset: {fileID: 0}
  m_GameObject: {fileID: 0}
  m_Enabled: 1
  m_EditorHideFlags: 0
  m_Script: {fileID: 11500000, guid: ba17025c4d698834b98dd46cb31d7cc9, type: 3}
  m_Name: BuildingTypeList
  m_EditorClassIdentifier: 
  buildings:
  - {fileID: 11400000, guid: ed271a226acf2c24ab930027765c8efe, type: 2}
  - {fileID: 11400000, guid: b8806cdce288a614782fb6df3b4cef22, type: 2}
  - {fileID: 11400000, guid: d65ba5cef40b3384ab9c1007fbd451b8, type: 2}
  - {fileID: 11400000, guid: 170094baf61db9342ba500bafaabca15, type: 2}
  - {fileID: 11400000, guid: 5e2e989ee57c6864ebd4824816a74040, type: 2}
  - {fileID: 11400000, guid: ccb09ff0fad49e14e90f493bca95bb75, type: 2}
  - {fileID: 11400000, guid: 1874c461cb9a9f940927f911193e0bae, type: 2}
  - {fileID: 11400000, guid: c19d48b5c8973dc46bc4880cc0c40d3d, type: 2}
  - {fileID: 11400000, guid: cc7e009e124376c40ae3a8730c694257, type: 2}
  - {fileID: 11400000, guid: 538d1a9d9beeca64f8953a8285e149b1, type: 2}
  - {fileID: 11400000, guid: 6b4c9b86421553a48b0e7a88046e6d26, type: 2}
  - {fileID: 11400000, guid: de63b33d53ed48e4cad24b66373bda1f, type: 2}
  - {fileID: 11400000, guid: 91f1f0da9bee07542b0f93aaad48e8c4, type: 2}
