%YAML 1.1
%TAG !u! tag:unity3d.com,2011:
--- !u!1 &3762985441566335108
GameObject:
  m_ObjectHideFlags: 0
  m_CorrespondingSourceObject: {fileID: 0}
  m_PrefabInstance: {fileID: 0}
  m_PrefabAsset: {fileID: 0}
  serializedVersion: 6
  m_Component:
  - component: {fileID: 4447870998432444415}
  - component: {fileID: 496517979827236640}
  - component: {fileID: 4142480868012339361}
  m_Layer: 0
  m_Name: Layer1
  m_TagString: Untagged
  m_Icon: {fileID: 0}
  m_NavMeshLayer: 0
  m_StaticEditorFlags: 0
  m_IsActive: 1
--- !u!4 &4447870998432444415
Transform:
  m_ObjectHideFlags: 0
  m_CorrespondingSourceObject: {fileID: 0}
  m_PrefabInstance: {fileID: 0}
  m_PrefabAsset: {fileID: 0}
  m_GameObject: {fileID: 3762985441566335108}
  m_LocalRotation: {x: -0, y: -0, z: -0, w: 1}
  m_LocalPosition: {x: 0, y: 0, z: 0}
  m_LocalScale: {x: 1, y: 1, z: 1}
  m_Children: []
  m_Father: {fileID: 5071023326263691608}
  m_RootOrder: 0
  m_LocalEulerAnglesHint: {x: 0, y: 0, z: 0}
--- !u!1839735485 &496517979827236640
Tilemap:
  m_ObjectHideFlags: 0
  m_CorrespondingSourceObject: {fileID: 0}
  m_PrefabInstance: {fileID: 0}
  m_PrefabAsset: {fileID: 0}
  m_GameObject: {fileID: 3762985441566335108}
  m_Enabled: 1
  m_Tiles:
  - first: {x: -1, y: -12, z: 0}
    second:
      serializedVersion: 2
      m_TileIndex: 18
      m_TileSpriteIndex: 18
      m_TileMatrixIndex: 13
      m_TileColorIndex: 0
      m_TileObjectToInstantiateIndex: 65535
      dummyAlignment: 0
      m_AllTileFlags: 1073741825
  - first: {x: -2, y: -8, z: 0}
    second:
      serializedVersion: 2
      m_TileIndex: 17
      m_TileSpriteIndex: 17
      m_TileMatrixIndex: 11
      m_TileColorIndex: 0
      m_TileObjectToInstantiateIndex: 65535
      dummyAlignment: 0
      m_AllTileFlags: 1073741825
  - first: {x: -1, y: -8, z: 0}
    second:
      serializedVersion: 2
      m_TileIndex: 16
      m_TileSpriteIndex: 16
      m_TileMatrixIndex: 11
      m_TileColorIndex: 0
      m_TileObjectToInstantiateIndex: 65535
      dummyAlignment: 0
      m_AllTileFlags: 1073741825
  - first: {x: 0, y: -8, z: 0}
    second:
      serializedVersion: 2
      m_TileIndex: 15
      m_TileSpriteIndex: 15
      m_TileMatrixIndex: 11
      m_TileColorIndex: 0
      m_TileObjectToInstantiateIndex: 65535
      dummyAlignment: 0
      m_AllTileFlags: 1073741825
  - first: {x: -14, y: -4, z: 0}
    second:
      serializedVersion: 2
      m_TileIndex: 9
      m_TileSpriteIndex: 9
      m_TileMatrixIndex: 5
      m_TileColorIndex: 0
      m_TileObjectToInstantiateIndex: 65535
      dummyAlignment: 0
      m_AllTileFlags: 1073741825
  - first: {x: -11, y: -4, z: 0}
    second:
      serializedVersion: 2
      m_TileIndex: 8
      m_TileSpriteIndex: 8
      m_TileMatrixIndex: 4
      m_TileColorIndex: 0
      m_TileObjectToInstantiateIndex: 65535
      dummyAlignment: 0
      m_AllTileFlags: 1073741825
  - first: {x: -8, y: -4, z: 0}
    second:
      serializedVersion: 2
      m_TileIndex: 7
      m_TileSpriteIndex: 7
      m_TileMatrixIndex: 3
      m_TileColorIndex: 0
      m_TileObjectToInstantiateIndex: 65535
      dummyAlignment: 0
      m_AllTileFlags: 1073741825
  - first: {x: -4, y: -4, z: 0}
    second:
      serializedVersion: 2
      m_TileIndex: 14
      m_TileSpriteIndex: 14
      m_TileMatrixIndex: 10
      m_TileColorIndex: 0
      m_TileObjectToInstantiateIndex: 65535
      dummyAlignment: 0
      m_AllTileFlags: 1073741825
  - first: {x: -3, y: -4, z: 0}
    second:
      serializedVersion: 2
      m_TileIndex: 13
      m_TileSpriteIndex: 13
      m_TileMatrixIndex: 9
      m_TileColorIndex: 0
      m_TileObjectToInstantiateIndex: 65535
      dummyAlignment: 0
      m_AllTileFlags: 1073741825
  - first: {x: -2, y: -4, z: 0}
    second:
      serializedVersion: 2
      m_TileIndex: 12
      m_TileSpriteIndex: 12
      m_TileMatrixIndex: 8
      m_TileColorIndex: 0
      m_TileObjectToInstantiateIndex: 65535
      dummyAlignment: 0
      m_AllTileFlags: 1073741825
  - first: {x: -1, y: -4, z: 0}
    second:
      serializedVersion: 2
      m_TileIndex: 11
      m_TileSpriteIndex: 11
      m_TileMatrixIndex: 7
      m_TileColorIndex: 0
      m_TileObjectToInstantiateIndex: 65535
      dummyAlignment: 0
      m_AllTileFlags: 1073741825
  - first: {x: 0, y: -4, z: 0}
    second:
      serializedVersion: 2
      m_TileIndex: 10
      m_TileSpriteIndex: 10
      m_TileMatrixIndex: 6
      m_TileColorIndex: 0
      m_TileObjectToInstantiateIndex: 65535
      dummyAlignment: 0
      m_AllTileFlags: 1073741825
  - first: {x: -6, y: 0, z: 0}
    second:
      serializedVersion: 2
      m_TileIndex: 6
      m_TileSpriteIndex: 6
      m_TileMatrixIndex: 1
      m_TileColorIndex: 0
      m_TileObjectToInstantiateIndex: 65535
      dummyAlignment: 0
      m_AllTileFlags: 1073741825
  - first: {x: -5, y: 0, z: 0}
    second:
      serializedVersion: 2
      m_TileIndex: 5
      m_TileSpriteIndex: 5
      m_TileMatrixIndex: 0
      m_TileColorIndex: 0
      m_TileObjectToInstantiateIndex: 65535
      dummyAlignment: 0
      m_AllTileFlags: 1073741825
  - first: {x: -4, y: 0, z: 0}
    second:
      serializedVersion: 2
      m_TileIndex: 4
      m_TileSpriteIndex: 4
      m_TileMatrixIndex: 2
      m_TileColorIndex: 0
      m_TileObjectToInstantiateIndex: 65535
      dummyAlignment: 0
      m_AllTileFlags: 1073741825
  - first: {x: -3, y: 0, z: 0}
    second:
      serializedVersion: 2
      m_TileIndex: 3
      m_TileSpriteIndex: 3
      m_TileMatrixIndex: 2
      m_TileColorIndex: 0
      m_TileObjectToInstantiateIndex: 65535
      dummyAlignment: 0
      m_AllTileFlags: 1073741825
  - first: {x: -2, y: 0, z: 0}
    second:
      serializedVersion: 2
      m_TileIndex: 2
      m_TileSpriteIndex: 2
      m_TileMatrixIndex: 1
      m_TileColorIndex: 0
      m_TileObjectToInstantiateIndex: 65535
      dummyAlignment: 0
      m_AllTileFlags: 1073741825
  - first: {x: -1, y: 0, z: 0}
    second:
      serializedVersion: 2
      m_TileIndex: 0
      m_TileSpriteIndex: 0
      m_TileMatrixIndex: 1
      m_TileColorIndex: 0
      m_TileObjectToInstantiateIndex: 65535
      dummyAlignment: 0
      m_AllTileFlags: 1073741825
  - first: {x: 0, y: 0, z: 0}
    second:
      serializedVersion: 2
      m_TileIndex: 1
      m_TileSpriteIndex: 1
      m_TileMatrixIndex: 1
      m_TileColorIndex: 0
      m_TileObjectToInstantiateIndex: 65535
      dummyAlignment: 0
      m_AllTileFlags: 1073741825
  - first: {x: -16, y: 6, z: 0}
    second:
      serializedVersion: 2
      m_TileIndex: 26
      m_TileSpriteIndex: 26
      m_TileMatrixIndex: 14
      m_TileColorIndex: 0
      m_TileObjectToInstantiateIndex: 65535
      dummyAlignment: 0
      m_AllTileFlags: 1073741825
  - first: {x: -13, y: 6, z: 0}
    second:
      serializedVersion: 2
      m_TileIndex: 27
      m_TileSpriteIndex: 27
      m_TileMatrixIndex: 15
      m_TileColorIndex: 0
      m_TileObjectToInstantiateIndex: 65535
      dummyAlignment: 0
      m_AllTileFlags: 1073741825
  - first: {x: -10, y: 6, z: 0}
    second:
      serializedVersion: 2
      m_TileIndex: 28
      m_TileSpriteIndex: 28
      m_TileMatrixIndex: 16
      m_TileColorIndex: 0
      m_TileObjectToInstantiateIndex: 65535
      dummyAlignment: 0
      m_AllTileFlags: 1073741825
  - first: {x: -5, y: 6, z: 0}
    second:
      serializedVersion: 2
      m_TileIndex: 34
      m_TileSpriteIndex: 34
      m_TileMatrixIndex: 12
      m_TileColorIndex: 0
      m_TileObjectToInstantiateIndex: 65535
      dummyAlignment: 0
      m_AllTileFlags: 1073741825
  - first: {x: -4, y: 6, z: 0}
    second:
      serializedVersion: 2
      m_TileIndex: 35
      m_TileSpriteIndex: 35
      m_TileMatrixIndex: 12
      m_TileColorIndex: 0
      m_TileObjectToInstantiateIndex: 65535
      dummyAlignment: 0
      m_AllTileFlags: 1073741825
  - first: {x: -3, y: 6, z: 0}
    second:
      serializedVersion: 2
      m_TileIndex: 36
      m_TileSpriteIndex: 36
      m_TileMatrixIndex: 12
      m_TileColorIndex: 0
      m_TileObjectToInstantiateIndex: 65535
      dummyAlignment: 0
      m_AllTileFlags: 1073741825
  - first: {x: 0, y: 6, z: 0}
    second:
      serializedVersion: 2
      m_TileIndex: 37
      m_TileSpriteIndex: 37
      m_TileMatrixIndex: 22
      m_TileColorIndex: 0
      m_TileObjectToInstantiateIndex: 65535
      dummyAlignment: 0
      m_AllTileFlags: 1073741825
  - first: {x: -15, y: 10, z: 0}
    second:
      serializedVersion: 2
      m_TileIndex: 19
      m_TileSpriteIndex: 19
      m_TileMatrixIndex: 12
      m_TileColorIndex: 0
      m_TileObjectToInstantiateIndex: 65535
      dummyAlignment: 0
      m_AllTileFlags: 1073741825
  - first: {x: -14, y: 10, z: 0}
    second:
      serializedVersion: 2
      m_TileIndex: 20
      m_TileSpriteIndex: 20
      m_TileMatrixIndex: 12
      m_TileColorIndex: 0
      m_TileObjectToInstantiateIndex: 65535
      dummyAlignment: 0
      m_AllTileFlags: 1073741825
  - first: {x: -13, y: 10, z: 0}
    second:
      serializedVersion: 2
      m_TileIndex: 21
      m_TileSpriteIndex: 21
      m_TileMatrixIndex: 12
      m_TileColorIndex: 0
      m_TileObjectToInstantiateIndex: 65535
      dummyAlignment: 0
      m_AllTileFlags: 1073741825
  - first: {x: -12, y: 10, z: 0}
    second:
      serializedVersion: 2
      m_TileIndex: 22
      m_TileSpriteIndex: 22
      m_TileMatrixIndex: 12
      m_TileColorIndex: 0
      m_TileObjectToInstantiateIndex: 65535
      dummyAlignment: 0
      m_AllTileFlags: 1073741825
  - first: {x: -11, y: 10, z: 0}
    second:
      serializedVersion: 2
      m_TileIndex: 23
      m_TileSpriteIndex: 23
      m_TileMatrixIndex: 12
      m_TileColorIndex: 0
      m_TileObjectToInstantiateIndex: 65535
      dummyAlignment: 0
      m_AllTileFlags: 1073741825
  - first: {x: -10, y: 10, z: 0}
    second:
      serializedVersion: 2
      m_TileIndex: 24
      m_TileSpriteIndex: 24
      m_TileMatrixIndex: 12
      m_TileColorIndex: 0
      m_TileObjectToInstantiateIndex: 65535
      dummyAlignment: 0
      m_AllTileFlags: 1073741825
  - first: {x: -9, y: 10, z: 0}
    second:
      serializedVersion: 2
      m_TileIndex: 25
      m_TileSpriteIndex: 25
      m_TileMatrixIndex: 12
      m_TileColorIndex: 0
      m_TileObjectToInstantiateIndex: 65535
      dummyAlignment: 0
      m_AllTileFlags: 1073741825
  - first: {x: -5, y: 10, z: 0}
    second:
      serializedVersion: 2
      m_TileIndex: 29
      m_TileSpriteIndex: 29
      m_TileMatrixIndex: 17
      m_TileColorIndex: 0
      m_TileObjectToInstantiateIndex: 65535
      dummyAlignment: 0
      m_AllTileFlags: 1073741825
  - first: {x: -4, y: 10, z: 0}
    second:
      serializedVersion: 2
      m_TileIndex: 30
      m_TileSpriteIndex: 30
      m_TileMatrixIndex: 18
      m_TileColorIndex: 0
      m_TileObjectToInstantiateIndex: 65535
      dummyAlignment: 0
      m_AllTileFlags: 1073741825
  - first: {x: -3, y: 10, z: 0}
    second:
      serializedVersion: 2
      m_TileIndex: 31
      m_TileSpriteIndex: 31
      m_TileMatrixIndex: 19
      m_TileColorIndex: 0
      m_TileObjectToInstantiateIndex: 65535
      dummyAlignment: 0
      m_AllTileFlags: 1073741825
  - first: {x: -2, y: 10, z: 0}
    second:
      serializedVersion: 2
      m_TileIndex: 32
      m_TileSpriteIndex: 32
      m_TileMatrixIndex: 20
      m_TileColorIndex: 0
      m_TileObjectToInstantiateIndex: 65535
      dummyAlignment: 0
      m_AllTileFlags: 1073741825
  - first: {x: -1, y: 10, z: 0}
    second:
      serializedVersion: 2
      m_TileIndex: 33
      m_TileSpriteIndex: 33
      m_TileMatrixIndex: 21
      m_TileColorIndex: 0
      m_TileObjectToInstantiateIndex: 65535
      dummyAlignment: 0
      m_AllTileFlags: 1073741825
  m_AnimatedTiles: {}
  m_TileAssetArray:
  - m_RefCount: 1
    m_Data: {fileID: 11400000, guid: b9df55b9b550c834e9bfc1336c285735, type: 2}
  - m_RefCount: 1
    m_Data: {fileID: 11400000, guid: 072962747096def48bcc15c488d1df42, type: 2}
  - m_RefCount: 1
    m_Data: {fileID: 11400000, guid: 615e18adf96c6b04e827b847ca9aaf51, type: 2}
  - m_RefCount: 1
    m_Data: {fileID: 11400000, guid: 5c1a7c9154d19f04098cf253165c0a54, type: 2}
  - m_RefCount: 1
    m_Data: {fileID: 11400000, guid: 710e4022d7cee514faa171c2f7a3620a, type: 2}
  - m_RefCount: 1
    m_Data: {fileID: 11400000, guid: 76bb144291e18cd44a87573b14872831, type: 2}
  - m_RefCount: 1
    m_Data: {fileID: 11400000, guid: ea3d1ec5964ee3a4490a2f36b133741c, type: 2}
  - m_RefCount: 1
    m_Data: {fileID: 11400000, guid: 5204c89a5c2c119419db6a16b6e876de, type: 2}
  - m_RefCount: 1
    m_Data: {fileID: 11400000, guid: 324b1d13258f5bb4185f9132ef912168, type: 2}
  - m_RefCount: 1
    m_Data: {fileID: 11400000, guid: 3001ab0e3cebc2446a7ea63d391077c3, type: 2}
  - m_RefCount: 1
    m_Data: {fileID: 11400000, guid: 62bfe361026cb5f4aab172fe8ca8f9f0, type: 2}
  - m_RefCount: 1
    m_Data: {fileID: 11400000, guid: 00565d81d9ab8c94f8e4ab87512eba2b, type: 2}
  - m_RefCount: 1
    m_Data: {fileID: 11400000, guid: f9bf45b0ee586224db8c16265df841d3, type: 2}
  - m_RefCount: 1
    m_Data: {fileID: 11400000, guid: e2cf4aff5796aa048b9008f4b3e19502, type: 2}
  - m_RefCount: 1
    m_Data: {fileID: 11400000, guid: b730b8794e8a5c94f80c0c8f3de5b5aa, type: 2}
  - m_RefCount: 1
    m_Data: {fileID: 11400000, guid: 391ba7734be790f4cb8ef0e6387113e9, type: 2}
  - m_RefCount: 1
    m_Data: {fileID: 11400000, guid: 6ddea2e9d8f11304e84fa559e371d398, type: 2}
  - m_RefCount: 1
    m_Data: {fileID: 11400000, guid: d4c4d5ab66c245d45a8604873c112208, type: 2}
  - m_RefCount: 1
    m_Data: {fileID: 11400000, guid: 79ed282b013aa9e479dcea245a48e024, type: 2}
  - m_RefCount: 1
    m_Data: {fileID: 11400000, guid: a449f3e332d3564478f9c66b6664648e, type: 2}
  - m_RefCount: 1
    m_Data: {fileID: 11400000, guid: c91912bc1ca1add439aa88c267f5f7af, type: 2}
  - m_RefCount: 1
    m_Data: {fileID: 11400000, guid: 727cf400ed3488146aeeb19d7f897e3e, type: 2}
  - m_RefCount: 1
    m_Data: {fileID: 11400000, guid: cc9ec4db3c5ee1d4ab66ab1862104aa6, type: 2}
  - m_RefCount: 1
    m_Data: {fileID: 11400000, guid: ffa458eaf2ae3554186f8da5bf036c12, type: 2}
  - m_RefCount: 1
    m_Data: {fileID: 11400000, guid: a549a80cb89c97a42a7d7b1b1f165129, type: 2}
  - m_RefCount: 1
    m_Data: {fileID: 11400000, guid: 9d72d780288b1c24f8d92f7cc7eaa02f, type: 2}
  - m_RefCount: 1
    m_Data: {fileID: 11400000, guid: 37b9375c59ebef74d82a30b2b152a79d, type: 2}
  - m_RefCount: 1
    m_Data: {fileID: 11400000, guid: 908486fa607df5240adcd2ac5755be82, type: 2}
  - m_RefCount: 1
    m_Data: {fileID: 11400000, guid: 34fce79d8e3693b41bdcd761901ff084, type: 2}
  - m_RefCount: 1
    m_Data: {fileID: 11400000, guid: 0453e6dc90709444898c78f9f325b893, type: 2}
  - m_RefCount: 1
    m_Data: {fileID: 11400000, guid: efb5cd35a5d449e4cb50d7db3cf5cd30, type: 2}
  - m_RefCount: 1
    m_Data: {fileID: 11400000, guid: ab2fc2903d34ea74ca1ed19a1b6f8cef, type: 2}
  - m_RefCount: 1
    m_Data: {fileID: 11400000, guid: 0461b7f9cc947ac49b6d6c5d76ac26dc, type: 2}
  - m_RefCount: 1
    m_Data: {fileID: 11400000, guid: cae947bd7f9c0e542a7f19d4f5af630a, type: 2}
  - m_RefCount: 1
    m_Data: {fileID: 11400000, guid: 1145a65ca5c0f834b81e2ef4ec0ce486, type: 2}
  - m_RefCount: 1
    m_Data: {fileID: 11400000, guid: 1ed5087dd970c8e46ae7eb97ba7cc86e, type: 2}
  - m_RefCount: 1
    m_Data: {fileID: 11400000, guid: 504d7ead6b9536243a073ce8388e8141, type: 2}
  - m_RefCount: 1
    m_Data: {fileID: 11400000, guid: 8787a4c304d902840b2f41fc35365e42, type: 2}
  m_TileSpriteArray:
  - m_RefCount: 1
    m_Data: {fileID: 21300000, guid: 71cc9de8b4c8c2f41874f6de25f01c36, type: 3}
  - m_RefCount: 1
    m_Data: {fileID: 21300000, guid: 3847aaebe987e9e4e88af84482f39611, type: 3}
  - m_RefCount: 1
    m_Data: {fileID: 21300000, guid: 6892bb556db0ea4449cf72024d28fafe, type: 3}
  - m_RefCount: 1
    m_Data: {fileID: 21300000, guid: 2a9aeee3315d7f046b96923d72178841, type: 3}
  - m_RefCount: 1
    m_Data: {fileID: 21300000, guid: 7237c5fb5adb55446999e6671f18969c, type: 3}
  - m_RefCount: 1
    m_Data: {fileID: 21300000, guid: 4da518aa9d6c09e4aa1a4ebe889075c9, type: 3}
  - m_RefCount: 1
    m_Data: {fileID: 21300000, guid: dea51f988b176aa41858328291d8a0dd, type: 3}
  - m_RefCount: 1
    m_Data: {fileID: 21300000, guid: b0455ea961c8d3e42b3895ca218daf0d, type: 3}
  - m_RefCount: 1
    m_Data: {fileID: 21300000, guid: 488558e0807e2bd45bd39b1301fb312e, type: 3}
  - m_RefCount: 1
    m_Data: {fileID: 21300000, guid: 5c83a55de2faded428726a504030386e, type: 3}
  - m_RefCount: 1
    m_Data: {fileID: 21300000, guid: 5d6818a5d0802bb43aabe54c8dcdb3f4, type: 3}
  - m_RefCount: 1
    m_Data: {fileID: 21300000, guid: 8ff2ae6ad346720489921874a3df28a7, type: 3}
  - m_RefCount: 1
    m_Data: {fileID: 21300000, guid: 4a2013003e22f404d8a944a3bbc88e84, type: 3}
  - m_RefCount: 1
    m_Data: {fileID: 21300000, guid: 8303f7760e3542545bb5294673c2ca1d, type: 3}
  - m_RefCount: 1
    m_Data: {fileID: 21300000, guid: 044eb880bb7f184419c4754eede24538, type: 3}
  - m_RefCount: 1
    m_Data: {fileID: 21300000, guid: bde4e3de3207a654ea01d82a665a7b26, type: 3}
  - m_RefCount: 1
    m_Data: {fileID: 21300000, guid: 90e6e3bdb95137644864ba2f8e157480, type: 3}
  - m_RefCount: 1
    m_Data: {fileID: 21300000, guid: dd76f727ba347b143aaf74b50d3b05e1, type: 3}
  - m_RefCount: 1
    m_Data: {fileID: 21300000, guid: f8b0237f538d744469145e9793654459, type: 3}
  - m_RefCount: 1
    m_Data: {fileID: 21300000, guid: 57fe15fecaea0e14f883e32d33b6a70d, type: 3}
  - m_RefCount: 1
    m_Data: {fileID: 21300000, guid: fe69aa43f1de52c4f95ae5cde9280f1d, type: 3}
  - m_RefCount: 1
    m_Data: {fileID: 21300000, guid: d6da95e79e97a5743b2062560724a96a, type: 3}
  - m_RefCount: 1
    m_Data: {fileID: 21300000, guid: 0d2d3860da52bda4fa59ff7c0496479d, type: 3}
  - m_RefCount: 1
    m_Data: {fileID: 21300000, guid: 7486e47b566be6543af0758a19e73c79, type: 3}
  - m_RefCount: 1
    m_Data: {fileID: 21300000, guid: d048d7ed63260ca409a35c6fec120326, type: 3}
  - m_RefCount: 1
    m_Data: {fileID: 21300000, guid: 5525a05f2ebd4e94cb6bd9e8329b653c, type: 3}
  - m_RefCount: 1
    m_Data: {fileID: 21300000, guid: 2c58089e14672ea4fb35f81e4b0ff3ad, type: 3}
  - m_RefCount: 1
    m_Data: {fileID: 21300000, guid: 928ed57fc3e6ce94fafcbdc812fc40af, type: 3}
  - m_RefCount: 1
    m_Data: {fileID: 21300000, guid: e7f3b86be0bcc4a4881bad68fd5ca56c, type: 3}
  - m_RefCount: 1
    m_Data: {fileID: 21300000, guid: a4ef523a70b24864da20c4742618b0cb, type: 3}
  - m_RefCount: 1
    m_Data: {fileID: 21300000, guid: 4a72e0a9fd9c2734caef14a2dbb7dd5c, type: 3}
  - m_RefCount: 1
    m_Data: {fileID: 21300000, guid: 764588cadb7c98e4dab50f9f3c233a15, type: 3}
  - m_RefCount: 1
    m_Data: {fileID: 21300000, guid: 52289083524b5184a909dc014f35b20b, type: 3}
  - m_RefCount: 1
    m_Data: {fileID: 21300000, guid: e537f61486734f848a192cbc168096cb, type: 3}
  - m_RefCount: 1
    m_Data: {fileID: 21300000, guid: 04163fb72010ffa4da52ff23a4f870f3, type: 3}
  - m_RefCount: 1
    m_Data: {fileID: 21300000, guid: ba46e82728e4f3a4194131757ff205f8, type: 3}
  - m_RefCount: 1
    m_Data: {fileID: 21300000, guid: 17dea64f5c5abc44c9322432f454433b, type: 3}
  - m_RefCount: 1
    m_Data: {fileID: 21300000, guid: 8c29d4dcf4d46bf418b91737aec1414f, type: 3}
  m_TileMatrixArray:
  - m_RefCount: 1
    m_Data:
      e00: 1
      e01: 0
      e02: 0
      e03: 0.03
      e10: 0
      e11: 1
      e12: 0
      e13: -0.25
      e20: 0
      e21: 0
      e22: 1
      e23: 0
      e30: 0
      e31: 0
      e32: 0
      e33: 1
  - m_RefCount: 4
    m_Data:
      e00: 1
      e01: 0
      e02: 0
      e03: 0.03
      e10: 0
      e11: 1
      e12: 0
      e13: -0.3
      e20: 0
      e21: 0
      e22: 1
      e23: 0
      e30: 0
      e31: 0
      e32: 0
      e33: 1
  - m_RefCount: 2
    m_Data:
      e00: 1
      e01: 0
      e02: 0
      e03: 0.03
      e10: 0
      e11: 1
      e12: 0
      e13: -0.2
      e20: 0
      e21: 0
      e22: 1
      e23: 0
      e30: 0
      e31: 0
      e32: 0
      e33: 1
  - m_RefCount: 1
    m_Data:
      e00: 1
      e01: 0
      e02: 0
      e03: -1.54
      e10: 0
      e11: 1
      e12: 0
      e13: -0.3
      e20: 0
      e21: 0
      e22: 1
      e23: 0
      e30: 0
      e31: 0
      e32: 0
      e33: 1
  - m_RefCount: 1
    m_Data:
      e00: 1
      e01: 0
      e02: 0
      e03: -1.75
      e10: 0
      e11: 1
      e12: 0
      e13: -0.9
      e20: 0
      e21: 0
      e22: 1
      e23: 0
      e30: 0
      e31: 0
      e32: 0
      e33: 1
  - m_RefCount: 1
    m_Data:
      e00: 1
      e01: 0
      e02: 0
      e03: -1.53
      e10: 0
      e11: 1
      e12: 0
      e13: -0.78
      e20: 0
      e21: 0
      e22: 1
      e23: 0
      e30: 0
      e31: 0
      e32: 0
      e33: 1
  - m_RefCount: 1
    m_Data:
      e00: 1
      e01: 0
      e02: 0
      e03: 0.05
      e10: 0
      e11: 1
      e12: 0
      e13: 0.06
      e20: 0
      e21: 0
      e22: 1
      e23: 0
      e30: 0
      e31: 0
      e32: 0
      e33: 1
  - m_RefCount: 1
    m_Data:
      e00: 1
      e01: 0
      e02: 0
      e03: 0.13
      e10: 0
      e11: 1
      e12: 0
      e13: -0.06
      e20: 0
      e21: 0
      e22: 1
      e23: 0
      e30: 0
      e31: 0
      e32: 0
      e33: 1
  - m_RefCount: 1
    m_Data:
      e00: 1
      e01: 0
      e02: 0
      e03: -0.09
      e10: 0
      e11: 1
      e12: 0
      e13: 0.42
      e20: 0
      e21: 0
      e22: 1
      e23: 0
      e30: 0
      e31: 0
      e32: 0
      e33: 1
  - m_RefCount: 1
    m_Data:
      e00: 1
      e01: 0
      e02: 0
      e03: -0.03
      e10: 0
      e11: 1
      e12: 0
      e13: -0.06
      e20: 0
      e21: 0
      e22: 1
      e23: 0
      e30: 0
      e31: 0
      e32: 0
      e33: 1
  - m_RefCount: 1
    m_Data:
      e00: 1
      e01: 0
      e02: 0
      e03: 0
      e10: 0
      e11: 1
      e12: 0
      e13: 0.27
      e20: 0
      e21: 0
      e22: 1
      e23: 0
      e30: 0
      e31: 0
      e32: 0
      e33: 1
  - m_RefCount: 3
    m_Data:
      e00: 1
      e01: 0
      e02: 0
      e03: -0.03
      e10: 0
      e11: 1
      e12: 0
      e13: -0.16
      e20: 0
      e21: 0
      e22: 1
      e23: 0
      e30: 0
      e31: 0
      e32: 0
      e33: 1
  - m_RefCount: 10
    m_Data:
      e00: 1
      e01: 0
      e02: 0
      e03: 0
      e10: 0
      e11: 1
      e12: 0
      e13: 0
      e20: 0
      e21: 0
      e22: 1
      e23: 0
      e30: 0
      e31: 0
      e32: 0
      e33: 1
  - m_RefCount: 1
    m_Data:
      e00: 1
      e01: 0
      e02: 0
      e03: -1.64
      e10: 0
      e11: 1
      e12: 0
      e13: -0.15
      e20: 0
      e21: 0
      e22: 1
      e23: 0
      e30: 0
      e31: 0
      e32: 0
      e33: 1
  - m_RefCount: 1
    m_Data:
      e00: 1
      e01: 0
      e02: 0
      e03: -1.52
      e10: 0
      e11: 1
      e12: 0
      e13: 0
      e20: 0
      e21: 0
      e22: 1
      e23: 0
      e30: 0
      e31: 0
      e32: 0
      e33: 1
  - m_RefCount: 1
    m_Data:
      e00: 1
      e01: 0
      e02: 0
      e03: -1.6
      e10: 0
      e11: 1
      e12: 0
      e13: -0.24
      e20: 0
      e21: 0
      e22: 1
      e23: 0
      e30: 0
      e31: 0
      e32: 0
      e33: 1
  - m_RefCount: 1
    m_Data:
      e00: 1
      e01: 0
      e02: 0
      e03: -1.57
      e10: 0
      e11: 1
      e12: 0
      e13: -0.57
      e20: 0
      e21: 0
      e22: 1
      e23: 0
      e30: 0
      e31: 0
      e32: 0
      e33: 1
  - m_RefCount: 1
    m_Data:
      e00: 1
      e01: 0
      e02: 0
      e03: 0.07
      e10: 0
      e11: 1
      e12: 0
      e13: 0.4
      e20: 0
      e21: 0
      e22: 1
      e23: 0
      e30: 0
      e31: 0
      e32: 0
      e33: 1
  - m_RefCount: 1
    m_Data:
      e00: 1
      e01: 0
      e02: 0
      e03: 0.07
      e10: 0
      e11: 1
      e12: 0
      e13: 0.27
      e20: 0
      e21: 0
      e22: 1
      e23: 0
      e30: 0
      e31: 0
      e32: 0
      e33: 1
  - m_RefCount: 1
    m_Data:
      e00: 1
      e01: 0
      e02: 0
      e03: -0.06
      e10: 0
      e11: 1
      e12: 0
      e13: 0.66
      e20: 0
      e21: 0
      e22: 1
      e23: 0
      e30: 0
      e31: 0
      e32: 0
      e33: 1
  - m_RefCount: 1
    m_Data:
      e00: 1
      e01: 0
      e02: 0
      e03: -0.04
      e10: 0
      e11: 1
      e12: 0
      e13: 0.31
      e20: 0
      e21: 0
      e22: 1
      e23: 0
      e30: 0
      e31: 0
      e32: 0
      e33: 1
  - m_RefCount: 1
    m_Data:
      e00: 1
      e01: 0
      e02: 0
      e03: 0
      e10: 0
      e11: 1
      e12: 0
      e13: 0.5
      e20: 0
      e21: 0
      e22: 1
      e23: 0
      e30: 0
      e31: 0
      e32: 0
      e33: 1
  - m_RefCount: 1
    m_Data:
      e00: 1
      e01: 0
      e02: 0
      e03: -1.64
      e10: 0
      e11: 1
      e12: 0
      e13: 0
      e20: 0
      e21: 0
      e22: 1
      e23: 0
      e30: 0
      e31: 0
      e32: 0
      e33: 1
  m_TileColorArray:
  - m_RefCount: 38
    m_Data: {r: 1, g: 1, b: 1, a: 1}
  m_TileObjectToInstantiateArray: []
  m_AnimationFrameRate: 1
  m_Color: {r: 1, g: 1, b: 1, a: 1}
  m_Origin: {x: -16, y: -12, z: 0}
  m_Size: {x: 18, y: 23, z: 1}
  m_TileAnchor: {x: 0, y: 0, z: 0}
  m_TileOrientation: 0
  m_TileOrientationMatrix:
    e00: 1
    e01: 0
    e02: 0
    e03: 0
    e10: 0
    e11: 1
    e12: 0
    e13: 0
    e20: 0
    e21: 0
    e22: 1
    e23: 0
    e30: 0
    e31: 0
    e32: 0
    e33: 1
--- !u!483693784 &4142480868012339361
TilemapRenderer:
  m_ObjectHideFlags: 0
  m_CorrespondingSourceObject: {fileID: 0}
  m_PrefabInstance: {fileID: 0}
  m_PrefabAsset: {fileID: 0}
  m_GameObject: {fileID: 3762985441566335108}
  m_Enabled: 1
  m_CastShadows: 0
  m_ReceiveShadows: 0
  m_DynamicOccludee: 0
  m_MotionVectors: 1
  m_LightProbeUsage: 0
  m_ReflectionProbeUsage: 0
  m_RayTracingMode: 0
  m_RayTraceProcedural: 0
  m_RenderingLayerMask: 1
  m_RendererPriority: 0
  m_Materials:
  - {fileID: 2100000, guid: a97c105638bdf8b4a8650670310a4cd3, type: 2}
  m_StaticBatchInfo:
    firstSubMesh: 0
    subMeshCount: 0
  m_StaticBatchRoot: {fileID: 0}
  m_ProbeAnchor: {fileID: 0}
  m_LightProbeVolumeOverride: {fileID: 0}
  m_ScaleInLightmap: 1
  m_ReceiveGI: 1
  m_PreserveUVs: 0
  m_IgnoreNormalsForChartDetection: 0
  m_ImportantGI: 0
  m_StitchLightmapSeams: 1
  m_SelectedEditorRenderState: 0
  m_MinimumChartSize: 4
  m_AutoUVMaxDistance: 0.5
  m_AutoUVMaxAngle: 89
  m_LightmapParameters: {fileID: 0}
  m_SortingLayerID: 0
  m_SortingLayer: 0
  m_SortingOrder: 0
  m_ChunkSize: {x: 32, y: 32, z: 32}
  m_ChunkCullingBounds: {x: 3.085, y: 3.14, z: 0}
  m_MaxChunkCount: 16
  m_MaxFrameAge: 16
  m_SortOrder: 0
  m_Mode: 0
  m_DetectChunkCullingBounds: 0
  m_MaskInteraction: 0
--- !u!1 &8625262010301165357
GameObject:
  m_ObjectHideFlags: 0
  m_CorrespondingSourceObject: {fileID: 0}
  m_PrefabInstance: {fileID: 0}
  m_PrefabAsset: {fileID: 0}
  serializedVersion: 6
  m_Component:
  - component: {fileID: 5071023326263691608}
  - component: {fileID: 7405630459527858968}
  m_Layer: 31
  m_Name: Land
  m_TagString: Untagged
  m_Icon: {fileID: 0}
  m_NavMeshLayer: 0
  m_StaticEditorFlags: 0
  m_IsActive: 1
--- !u!4 &5071023326263691608
Transform:
  m_ObjectHideFlags: 0
  m_CorrespondingSourceObject: {fileID: 0}
  m_PrefabInstance: {fileID: 0}
  m_PrefabAsset: {fileID: 0}
  m_GameObject: {fileID: 8625262010301165357}
  m_LocalRotation: {x: 0, y: 0, z: 0, w: 1}
  m_LocalPosition: {x: 0, y: 0, z: 0}
  m_LocalScale: {x: 1, y: 1, z: 1}
  m_Children:
  - {fileID: 4447870998432444415}
  m_Father: {fileID: 0}
  m_RootOrder: 0
  m_LocalEulerAnglesHint: {x: 0, y: 0, z: 0}
--- !u!156049354 &7405630459527858968
Grid:
  m_ObjectHideFlags: 0
  m_CorrespondingSourceObject: {fileID: 0}
  m_PrefabInstance: {fileID: 0}
  m_PrefabAsset: {fileID: 0}
  m_GameObject: {fileID: 8625262010301165357}
  m_Enabled: 1
  m_CellSize: {x: 3.27, y: 2.31, z: 1}
  m_CellGap: {x: 0, y: 0, z: 0}
  m_CellLayout: 1
  m_CellSwizzle: 0
--- !u!114 &9175511670922931586
MonoBehaviour:
  m_ObjectHideFlags: 0
  m_CorrespondingSourceObject: {fileID: 0}
  m_PrefabInstance: {fileID: 0}
  m_PrefabAsset: {fileID: 0}
  m_GameObject: {fileID: 0}
  m_Enabled: 1
  m_EditorHideFlags: 0
  m_Script: {fileID: 12395, guid: 0000000000000000e000000000000000, type: 0}
  m_Name: Palette Settings
  m_EditorClassIdentifier: 
  cellSizing: 100
  m_TransparencySortMode: 0
  m_TransparencySortAxis: {x: 0, y: 0, z: 1}
