%YAML 1.1
%TAG !u! tag:unity3d.com,2011:
--- !u!114 &11400000
MonoBehaviour:
  m_ObjectHideFlags: 0
  m_CorrespondingSourceObject: {fileID: 0}
  m_PrefabInstance: {fileID: 0}
  m_PrefabAsset: {fileID: 0}
  m_GameObject: {fileID: 0}
  m_Enabled: 1
  m_EditorHideFlags: 0
  m_Script: {fileID: 11500000, guid: a8e036e7c4ac41e4f8314f40ca6e939b, type: 3}
  m_Name: Farm
  m_EditorClassIdentifier: 
  buildingTypeID: 0
  prefab: {fileID: 5058887815697182554, guid: 832d81873083ff542b374ac34f3f818a, type: 3}
  data:
    timerMax: 0
    resourceType: {fileID: 0}
    resourceDetectionRadius: 0
    maxResourceAmount: 0
  sprite: {fileID: 21300000, guid: 1616f8b72b059a04c8fe4758332be3b5, type: 3}
  destroyedSprite: {fileID: 21300000, guid: b46dd285b43235d4ba4e458430e8ced5, type: 3}
  minConstructionRadius: 7
  constructionResourceCostArray: []
  healthAmountMax: 700
